Matthew Maroney’s Site - Final Project
…
Here, I’ve found the most common words across tweets. I will go on to remove “stop words,” which are words which are not useful for my analysis, such as overly common words like “the,” “to,” “and,” or “of,” alongside things which are not words which tokenization still gathered up, such as “t.co” or “http.”

data("stop_words")
data.token_nostop = data.token %>%
  anti_join(stop_words, by = "word") %>%
  filter(!word %in% c("http","t.co","amp","day","rt","1","week","watch","morning","2","3","4","5","6","7","8","9","10","2013","2014","2015","2016","2017","2018","2019"))

data.token_nostop %>%
  count(word, sort = TRUE) %>%
  head(n = 100)

# A tibble: 100 × 2
   word           n
   <chr>      <int>
 1 house        450
 2 bill         332
 3 president    325
 4 congress     305
 5 act          303
 6 time         296
 7 veterans     288
 8 health       267
 9 government   250
10 jobs         246
# ℹ 90 more rows
…
